Analyzing Music Data
…
Reading External Music Data

Finally, we load the external music.csv dataset using readr::read_csv() (with column types messaging suppressed) and print the resulting tibble:

# A tibble: 10,000 × 35
   artist.familiarity artist.hotttnesss artist.id          artist.latitude
                <dbl>             <dbl> <chr>                        <dbl>
 1              0.582             0.402 ARD7TVE1187B99BFB1             0  
 2              0.631             0.417 ARMJAGH1187FB546F3            35.1
 3              0.487             0.343 ARKRRTF1187B9984DA             0  
 4              0.630             0.454 AR7G5I41187FB4CE6C             0  
 5              0.651             0.402 ARXR32B1187FB57099             0  
 6              0.535             0.385 ARKFYS91187B98E58F             0  
 7              0.556             0.262 ARD0S291187B9B7BF5             0  
 8              0.801             0.606 AR10USD1187B99F3F1             0  
 9              0.427             0.332 AR8ZCNI1187B9A069B             0  
10              0.551             0.423 ARNTLGG11E2835DDB9             0  
# ℹ 9,990 more rows
# ℹ 31 more variables: artist.location <dbl>, artist.longitude <dbl>,
#   artist.name <chr>, artist.similar <dbl>, artist.terms <chr>,
#   artist.terms_freq <dbl>, release.id <dbl>, release.name <dbl>,
#   song.artist_mbtags <dbl>, song.artist_mbtags_count <dbl>,
#   song.bars_confidence <dbl>, song.bars_start <dbl>,
#   song.beats_confidence <dbl>, song.beats_start <dbl>, song.duration <dbl>, …
…
